{
"announcements": [
	{
		"id" : 1,
		"group_type" : "all",
		"title" : "Happy Holidays!",
		"body" : "Amidst this crazy 2021, this community has been a beacon of hope that there is a bright future ahead. We’re so grateful you made the choice to join this community.\n\nWe hope you all are able to spend some time with loved ones – either virtually, or in-person if safe – and enjoy a few days off.",
		"created_ts" : "2021-12-24 13:02",
		"updated_ts" : "2021-12-24 13:02"
	},
	{
		"id" : 2,
		"group_type" : "all",
		"title" : "Speed-Run for Super Metroid Shattered",
		"body" : "Popular speed runner FlashMan showed video footage of completing Super Metroid 10% faster than previous record.",
		"created_ts" : "2021-01-13 11:49",
		"updated_ts" : "2021-01-13 11:49"
	},
	{
		"id" : 3,
		"group_type" : "all",
		"title" : "Announcing: Fornite Season 3 coming out in early 2022",
		"body" : "Developer People Can Fly announced the release date for the much anticipated season 3 of Fortnite. It will come out in Q1 of 2022.",
		"created_ts" : "2021-01-26 16:54",
		"updated_ts" : "2021-01-26 16:54"
	},
	{
		"id" : 4,
		"group_type" : "investors",
		"title" : "Workshop: Understanding the back-office necessities around a fundraise",
		"body" : "So you've just raised or are about to...what next? Join Nate to learn about the things most people don't tell you in setting up your business: insurance, HR, payroll, accounting, PR, IT, benefits, and much more.",
		"created_ts" : "2021-02-11 15:45",
		"updated_ts" : "2021-02-11 15:45"
	},
	{
		"id" : 5,
		"group_type" : "developers",
		"title" : "Help wanted for a secret new project!!!",
		"body" : "We at Adyn Studio are looking for 5 experienced game developers to join the team in creating a new secret game.",
		"created_ts" : "2021-02-14 17:22",
		"updated_ts" : "2021-02-14 17:22"
	}
]}
