{
"companies": [
	{
		"id" : 1,
		"name" : "Seam Studio",
		"description" : "An expert in FPS games, we are a triple A studio that has created some of the most highest selling games on record, including Duty Calls, Fields of Battle, etc.",
		"icon_url" : "https:\/\/avatars.dicebear.com\/api\/jdenticon\/a1.svg",
		"created_ts" : "2020-12-20 13:22",
		"updated_ts" : "2020-12-20 13:22"
	},
	{
		"id" : 2,
		"name" : "Evergreen Plays",
		"description" : "We focus on making 2D adventure, action, and plaforming games.",
		"icon_url" : "https:\/\/avatars.dicebear.com\/api\/jdenticon\/a2.svg",
		"created_ts" : "2020-12-23 18:57",
		"updated_ts" : "2020-12-23 18:57"
	},
	{
		"id" : 3,
		"name" : "Farmako Interactive",
		"description" : "We are experts at developing simulation games related to farming and all its activities.",
		"icon_url" : "https:\/\/avatars.dicebear.com\/api\/jdenticon\/a3.svg",
		"created_ts" : "2020-01-10 18:45",
		"updated_ts" : "2020-01-10 18:45"
	},
	{
		"id" : 4,
		"name" : "PolyOps Inc",
		"description" : "3D action adventure games are what we're known for, including Cry the Devil and Gears of Metal.",
		"icon_url" : "https:\/\/avatars.dicebear.com\/api\/jdenticon\/a4.svg",
		"created_ts" : "2021-01-15 15:30",
		"updated_ts" : "2021-01-15 15:30"
	},
	{
		"id" : 5,
		"name" : "Adyn Studio",
		"description" : "We are a subsidiary of Seam Studio. We were created to focus on next-gen Dark Soul-like games.",
		"icon_url" : "https:\/\/avatars.dicebear.com\/api\/jdenticon\/a5.svg",
		"created_ts" : "2021-01-17 17:26",
		"updated_ts" : "2021-01-17 17:26"
	},
	{
		"id" : 6,
		"name" : "Akiflow",
		"description" : "We are an indie studio based in Iceland, making puzzle and other brain teasing video games.",
		"icon_url" : "https:\/\/avatars.dicebear.com\/api\/jdenticon\/a6.svg",
		"created_ts" : "2021-01-20 19:16",
		"updated_ts" : "2021-01-20 19:16"
	},
	{
		"id" : 7,
		"name" : "Inspectify ",
		"description" : "Your source for hidden object, point & click games. We are masters of the art and are hiring additional artists.",
		"icon_url" : "https:\/\/avatars.dicebear.com\/api\/jdenticon\/a7.svg",
		"created_ts" : "2021-01-28 11:49",
		"updated_ts" : "2021-01-28 11:49"
	},
	{
		"id" : 8,
		"name" : "Bikayi Software",
		"description" : "Maker of the top MMORPG, Sky World, we are an international team of developers who came together from well known studios.",
		"icon_url" : "https:\/\/avatars.dicebear.com\/api\/jdenticon\/a8.svg",
		"created_ts" : "2021-02-02 16:40",
		"updated_ts" : "2021-02-02 16:40"
	},
	{
		"id" : 9,
		"name" : "Atomic Reality",
		"description" : "We make high-quality VR games. Visit our website to learn about our upcoming projects.",
		"icon_url" : "https:\/\/avatars.dicebear.com\/api\/jdenticon\/a9.svg",
		"created_ts" : "2021-02-08 15:30",
		"updated_ts" : "2021-02-08 15:30"
	},
	{
		"id" : 10,
		"name" : "Blue Onion Labs",
		"description" : "Story-heavy driven games is our forte. You may know us for games such as Rain Heavy, Double Souls, and Human Evolution.",
		"icon_url" : "https:\/\/avatars.dicebear.com\/api\/jdenticon\/a10.svg",
		"created_ts" : "2021-02-13 14:58",
		"updated_ts" : "2021-02-13 14:58"
	}
]}
